reward, leftAction, leftMean, leftSigma, rightAction, rightMean, rightSigma
-50.000000, 97, 0.000000, 100.000000, 157, 0.000000, 100.000000
-50.000000, -162, -48.500000, 100.295937, -57, -78.500000, 92.937311
-50.000000, -63, -36.710000, 99.267214, -229, -151.760000, 90.865888
-50.000000, 36, -16.512650, 102.163430, -163, -179.818400, 90.053481
-20.000000, 91, -19.293657, 107.539793, -103, -208.676011, 91.987965
-50.000000, -71, -22.580005, 107.904307, -319, -213.638880, 92.053586
-50.000000, -56, -41.126878, 115.215176, -128, -231.161556, 91.952128
-50.000000, -27, -51.796177, 126.230823, -396, -275.552426, 91.283745
-50.000000, -114, -66.970824, 141.518784, -236, -279.777304, 89.281635
-50.000000, -142, -68.111500, 161.947767, -307, -293.579212, 88.960154
-50.000000, -124, -53.268142, 188.823360, -406, -301.894852, 90.176610
-50.000000, -347, -27.660690, 226.794612, -411, -288.636718, 90.701511
-30.000000, 342, 48.278675, 241.073690, -217, -256.747317, 90.072493
0.000000, -11, 43.760160, 240.684464, -336, -262.359477, 89.956110
-50.000000, -297, -5.972884, 197.472773, -231, -326.042672, 88.353301
-50.000000, 141, 76.029086, 200.049166, -366, -311.776570, 88.960851
-50.000000, -180, 131.106376, 215.200245, -172, -290.753296, 90.236303
-20.000000, 208, 224.607894, 210.899757, -289, -292.385969, 90.431897
-50.000000, -50, 137.060540, 200.261260, -283, -290.366339, 89.093038
-20.000000, 309, 244.638715, 211.425450, -202, -293.327951, 91.413799
-20.000000, 157, 157.305875, 188.751000, -182, -276.172858, 89.305060
-50.000000, -34, 86.522657, 163.651054, -358, -248.848470, 87.744372
-10.000000, 237, 183.901887, 195.073239, -418, -259.715789, 88.791759
-50.000000, -77, 71.597418, 142.708386, -252, -284.587411, 91.210798
-50.000000, 70, 171.917050, 174.669518, -191, -274.096997, 90.787770
-50.000000, 69, 269.599083, 212.515768, -257, -278.990190, 90.641675
0.000000, 833, 377.814000, 250.889709, -234, -286.142867, 91.544360
-20.000000, 512, 297.873142, 292.179705, -317, -250.477367, 87.635373
-20.000000, 297, 300.444140, 291.249340, -238, -247.779827, 86.037542
-40.000000, 70, 302.115850, 262.548133, -187, -244.428334, 84.029151
-10.000000, 272, 322.453310, 286.263524, -269, -252.092334, 85.726623
-20.000000, 326, 268.732356, 200.930734, -147, -239.628888, 80.946004
-50.000000, 69, 252.976458, 168.696478, -276, -225.916691, 79.286691
-50.000000, -4, 324.488138, 237.965855, -171, -243.056274, 83.370549
-50.000000, 14, 445.840214, 284.797495, -225, -270.852647, 87.127520
-50.000000, 37, 619.180833, 274.286234, -252, -301.336008, 91.159806
-10.000000, 902, 850.641277, 176.139328, -380, -333.743807, 95.435424
-10.000000, 412, 518.673501, 316.833860, -255, -297.390716, 87.532466
-10.000000, 234, 224.891185, 414.167506, -217, -258.054366, 80.504215
-50.000000, -69, -11.159798, 358.972217, -249, -217.571222, 74.473452
-50.000000, -333, 214.536511, 532.433917, -200, -247.553346, 80.679689
-20.000000, 959, 501.335435, 710.377342, -495, -280.869919, 86.781196
-10.000000, 1099, 384.975997, 406.836912, -391, -288.129661, 87.204752
0.000000, 891, 363.942720, 369.663784, -176, -321.309392, 88.414342
-10.000000, 1091, 493.394872, 498.106399, -387, -319.197757, 93.512607
0.000000, 347, 657.360273, 693.147984, -406, -329.326509, 95.538521
0.000000, 711, 802.403467, 417.430754, -380, -362.112395, 97.563005
0.000000, 900, 899.438861, 190.985052, -558, -392.670936, 97.212887
0.000000, 954, 978.150519, 94.197400, -448, -450.713347, 100.484195
-20.000000, 1107, 1037.530396, 52.345161, -430, -497.235987, 101.344393
-10.000000, 988, 1024.084550, 58.251187, -564, -491.191097, 101.401129
-20.000000, 1061, 1043.576647, 48.873183, -403, -505.900501, 100.972257
-10.000000, 1049, 1032.403893, 53.753969, -649, -502.098384, 101.186697
-20.000000, 1209, 1049.625548, 46.762496, -675, -517.013149, 101.612734
0.000000, 963, 1032.651100, 50.301608, -360, -501.467900, 100.733726
-10.000000, 1060, 1079.836499, 39.272410, -595, -532.102284, 105.465021
0.000000, 1082, 1090.922517, 36.858495, -672, -542.764801, 106.353473
0.000000, 1069, 1120.461813, 30.847171, -647, -590.629213, 109.692720
0.000000, 1191, 1137.850953, 26.762117, -699, -636.560711, 111.216067
0.000000, 1135, 1158.012988, 23.910830, -693, -680.904262, 111.381543
0.000000, 1198, 1171.976152, 21.824581, -563, -718.067216, 110.117787
0.000000, 1204, 1185.696432, 20.272684, -786, -733.808140, 110.315771
0.000000, 1185, 1198.335475, 19.095704, -560, -750.908516, 109.610038
0.000000, 1181, 1207.572730, 18.190080, -741, -750.438698, 111.058604
-10.000000, 1247, 1213.260874, 17.492535, -553, -749.420901, 111.321846
0.000000, 1227, 1208.961825, 17.848157, -769, -757.660299, 110.047432
0.000000, 1225, 1216.507292, 17.323137, -651, -746.168752, 111.079329
-20.000000, 1222, 1223.113547, 16.906970, -590, -731.320087, 111.708639
-20.000000, 1252, 1208.203494, 17.879123, -969, -786.061779, 109.064960
-10.000000, 1202, 1190.308264, 18.667714, -784, -806.100375, 103.947697
0.000000, 1173, 1187.708256, 18.775567, -974, -809.187990, 103.496497
0.000000, 1198, 1196.354022, 18.367860, -830, -811.061561, 106.653596
0.000000, 1179, 1203.479153, 18.039639, -626, -813.983573, 108.392184
0.000000, 1194, 1207.616739, 17.781333, -582, -803.804133, 111.563855
0.000000, 1199, 1210.150265, 17.573439, -716, -782.235640, 116.749833
0.000000, 1194, 1211.599632, 17.405091, -670, -761.184432, 120.522916
-20.000000, 1238, 1211.917320, 17.269970, -821, -739.696428, 123.295155
-10.000000, 1217, 1206.924939, 17.652766, -871, -789.086829, 117.013551
-30.000000, 1180, 1205.348493, 17.745015, -696, -797.312236, 115.919412
0.000000, 1192, 1203.076372, 18.222652, -894, -864.414666, 111.177746
0.000000, 1210, 1202.864582, 18.059613, -768, -844.747766, 111.605370
0.000000, 1213, 1203.252520, 17.924753, -851, -822.799790, 111.378094
0.000000, 1169, 1204.254619, 17.813410, -950, -807.011988, 110.287054
0.000000, 1196, 1202.827226, 17.734151, -927, -803.305331, 109.988200
-30.000000, 1186, 1201.280788, 17.667504, -934, -807.373431, 109.947836
-30.000000, 1223, 1211.130914, 17.933268, -750, -759.979173, 109.031313
-30.000000, 1217, 1216.454405, 18.158805, -560, -723.822162, 111.188275
-10.000000, 1214, 1220.656588, 18.355738, -808, -727.517257, 109.722064
0.000000, 1204, 1220.178206, 18.338094, -650, -728.719999, 109.729751
0.000000, 1172, 1215.609376, 18.238072, -645, -726.246867, 109.025293
0.000000, 1211, 1207.319583, 18.187461, -855, -715.693971, 107.856438
0.000000, 1226, 1200.953413, 18.141118, -813, -720.339459, 107.708874
0.000000, 1188, 1197.931707, 18.108269, -751, -732.000393, 107.313336
0.000000, 1223, 1194.722233, 18.078525, -640, -742.903268, 106.082323
-20.000000, 1229, 1194.074907, 18.060363, -712, -744.629969, 105.047366
-20.000000, 1179, 1190.423370, 18.070741, -639, -746.025332, 108.394312
-10.000000, 1155, 1188.882993, 18.083549, -937, -760.434865, 111.224043
-10.000000, 1200, 1189.147982, 18.082901, -589, -759.594218, 111.222599
0.000000, 1180, 1189.248658, 18.082773, -698, -760.704818, 111.026171
0.000000, 1181, 1187.629950, 18.079810, -734, -746.408661, 111.707238
-10.000000, 1207, 1185.778498, 18.073242, -724, -733.817546, 111.140079
0.000000, 1191, 1185.757855, 18.074579, -693, -737.785819, 111.670957
-10.000000, 1187, 1186.209287, 18.067039, -632, -724.197534, 109.439617
-30.000000, 1177, 1186.015446, 18.071719, -796, -732.192951, 110.390174
0.000000, 1179, 1186.813385, 18.112353, -640, -769.649971, 118.966051
0.000000, 1210, 1185.778904, 18.092666, -724, -743.476642, 115.991411
0.000000, 1179, 1186.999043, 18.080719, -797, -720.621314, 112.381098
0.000000, 1184, 1187.375643, 18.067414, -793, -707.949410, 108.971489
0.000000, 1216, 1187.448359, 18.052730, -700, -703.538839, 105.946714
-30.000000, 1198, 1189.275838, 18.046313, -688, -699.747069, 102.841563
-10.000000, 1190, 1180.659533, 18.080113, -729, -716.072663, 117.243330
0.000000, 1169, 1179.844896, 18.083444, -779, -717.009009, 118.690376
-10.000000, 1213, 1181.992093, 18.067916, -746, -718.609887, 112.432514
0.000000, 1200, 1180.571097, 18.069357, -832, -717.439124, 114.538873
0.000000, 1174, 1185.814992, 18.066253, -775, -729.303530, 109.054562
-10.000000, 1208, 1189.248587, 18.061415, -653, -742.061826, 104.099817
0.000000, 1168, 1186.831686, 18.063642, -671, -739.112826, 106.648154
-10.000000, 1175, 1189.359501, 18.060508, -855, -739.227145, 102.248792
-10.000000, 1192, 1188.535219, 18.063139, -702, -734.442444, 104.553772
0.000000, 1184, 1187.740393, 18.067355, -482, -731.757469, 106.845516
-30.000000, 1186, 1188.795261, 18.056653, -793, -719.440783, 106.687516
-20.000000, 1199, 1186.066945, 18.104960, -615, -741.486696, 108.742913
0.000000, 1195, 1183.384238, 18.129361, -821, -765.708617, 109.119952
0.000000, 1213, 1186.495943, 18.107817, -920, -752.960910, 107.919853
0.000000, 1195, 1191.302110, 18.096229, -959, -757.040567, 108.467395
0.000000, 1220, 1195.482117, 18.082444, -657, -776.020209, 111.394133
0.000000, 1215, 1200.580587, 18.074746, -724, -783.079721, 113.962379
0.000000, 1191, 1205.616872, 18.067165, -714, -785.083684, 115.394961
-30.000000, 1225, 1208.869219, 18.059874, -627, -782.684874, 116.024812
-10.000000, 1182, 1191.966010, 18.091749, -657, -830.966141, 110.542216
-10.000000, 1211, 1190.730705, 18.095533, -953, -839.387180, 109.596878
-10.000000, 1181, 1189.289208, 18.098270, -894, -843.736903, 108.815864
-10.000000, 1184, 1188.283873, 18.101404, -786, -846.276184, 108.384783
-10.000000, 1172, 1187.545029, 18.104930, -792, -849.395019, 108.191423
-10.000000, 1199, 1187.193068, 18.108034, -932, -852.831405, 108.179247
-10.000000, 1201, 1186.739476, 18.111036, -752, -854.485019, 108.253321
-30.000000, 1198, 1186.188899, 18.113758, -1126, -857.140805, 108.330271
-10.000000, 1143, 1175.528447, 18.161398, -827, -839.630033, 96.314518
0.000000, 1192, 1175.651491, 18.160720, -805, -840.223670, 96.693244
0.000000, 1167, 1178.681208, 18.152578, -660, -842.445592, 99.755305
-10.000000, 1169, 1179.993175, 18.142561, -1039, -826.407134, 104.667526
-20.000000, 1174, 1179.980168, 18.144122, -819, -825.627339, 103.685975
0.000000, 1152, 1180.534745, 18.162993, -850, -819.883765, 97.024127
0.000000, 1188, 1177.221688, 18.156437, -1059, -827.581792, 101.546561
0.000000, 1171, 1175.510841, 18.147631, -880, -854.702393, 109.557022
0.000000, 1171, 1173.758667, 18.135950, -824, -878.724848, 115.436126
-10.000000, 1197, 1172.137743, 18.122236, -835, -894.182570, 119.522656
-10.000000, 1162, 1171.969915, 18.126214, -967, -889.696869, 118.219486
0.000000, 1172, 1172.140926, 18.130716, -984, -883.683458, 117.463303
0.000000, 1145, 1171.769352, 18.116898, -924, -903.643189, 118.746035
0.000000, 1178, 1169.726712, 18.110289, -670, -921.135023, 118.733326
0.000000, 1171, 1168.556622, 18.102187, -943, -920.598025, 122.176747
0.000000, 1142, 1167.737616, 18.092558, -786, -921.343644, 124.092029
0.000000, 1156, 1165.853483, 18.087637, -879, -915.528231, 125.839501
0.000000, 1140, 1163.906718, 18.081877, -1026, -909.258463, 126.487568
0.000000, 1169, 1161.411382, 18.078910, -809, -908.664973, 126.899327
0.000000, 1182, 1159.652547, 18.074825, -797, -904.738174, 126.962671
0.000000, 1143, 1158.923319, 18.072488, -910, -898.204775, 126.835789
0.000000, 1122, 1157.886680, 18.070226, -872, -893.243071, 126.168303
0.000000, 1212, 1156.142432, 18.072772, -944, -888.688631, 125.141374
0.000000, 1151, 1155.996757, 18.086293, -796, -886.254310, 123.960828
0.000000, 1177, 1155.776742, 18.096135, -857, -882.439779, 122.831541
0.000000, 1173, 1155.988515, 18.104521, -716, -878.882542, 121.601270
0.000000, 1151, 1156.441384, 18.111201, -921, -873.307453, 120.848270
0.000000, 1146, 1156.727219, 18.115809, -931, -869.501490, 120.021298
-20.000000, 1177, 1156.815046, 18.119026, -1023, -867.242473, 119.185876
-30.000000, 1152, 1151.912391, 18.075767, -596, -866.493820, 127.738673
-10.000000, 1162, 1145.569943, 18.036019, -765, -938.332187, 119.856737
0.000000, 1164, 1143.980303, 18.030834, -1100, -955.798294, 117.999551
0.000000, 1124, 1147.321146, 18.038530, -852, -941.665237, 120.973090
0.000000, 1153, 1148.726142, 18.046965, -1047, -925.215037, 122.983191
-10.000000, 1166, 1150.078783, 18.051014, -983, -918.005320, 124.617479
-10.000000, 1181, 1147.877257, 18.047752, -1045, -921.526039, 123.776306
-10.000000, 1122, 1144.460106, 18.038245, -814, -918.286963, 123.103659
-10.000000, 1168, 1142.689356, 18.029114, -861, -920.293255, 122.794535
-10.000000, 1154, 1140.243722, 18.019450, -739, -924.287505, 123.112192
0.000000, 1119, 1137.768071, 18.012502, -1007, -934.185955, 122.522331
0.000000, 1144, 1140.689269, 18.024602, -912, -922.355464, 122.713917
0.000000, 1135, 1143.256968, 18.030963, -875, -912.142411, 121.756135
0.000000, 1142, 1144.884451, 18.033579, -945, -901.835011, 120.097934
0.000000, 1188, 1146.060491, 18.032880, -957, -895.614311, 118.038084
0.000000, 1167, 1148.874168, 18.043790, -1000, -893.299562, 115.871692
0.000000, 1154, 1151.877154, 18.052654, -896, -895.686007, 114.053077
-20.000000, 1180, 1154.385877, 18.057750, -993, -897.630313, 112.075694
-10.000000, 1142, 1139.560610, 18.026390, -832, -873.479797, 121.316314
-10.000000, 1140, 1135.386689, 18.020758, -981, -868.993353, 124.793097
-10.000000, 1159, 1131.794538, 18.018701, -939, -860.229793, 127.859375
0.000000, 1119, 1127.763566, 18.013951, -757, -849.884633, 130.944509
0.000000, 1150, 1132.749084, 18.017669, -989, -858.251472, 126.048350
-10.000000, 1139, 1137.764000, 18.020405, -878, -872.430831, 122.300527
0.000000, 1141, 1133.793208, 18.021128, -787, -861.101920, 126.133038
0.000000, 1151, 1138.265686, 18.017641, -839, -868.574516, 121.497239
0.000000, 1160, 1142.528570, 18.013346, -751, -873.140557, 117.047442
-10.000000, 1144, 1146.771992, 18.009711, -716, -871.312854, 113.625464
0.000000, 1122, 1141.932517, 18.017379, -792, -882.674992, 116.891965
0.000000, 1105, 1144.430123, 18.012558, -822, -870.398269, 114.278550
0.000000, 1135, 1144.797777, 18.017959, -878, -858.422205, 111.700854
0.000000, 1145, 1144.725369, 18.020777, -1029, -849.461339, 109.155661
-10.000000, 1157, 1144.676057, 18.021071, -804, -848.308512, 107.879489
-20.000000, 1151, 1143.911411, 18.022694, -718, -853.500496, 110.977415
0.000000, 1177, 1141.148772, 18.034156, -975, -886.452390, 116.647765
0.000000, 1136, 1143.900503, 18.040054, -870, -881.395740, 114.572435
0.000000, 1160, 1145.746929, 18.042535, -666, -876.748168, 112.210257
0.000000, 1143, 1147.863548, 18.043582, -909, -863.801236, 111.873136
0.000000, 1114, 1149.387292, 18.042294, -850, -855.086620, 111.143440
0.000000, 1170, 1149.372634, 18.047153, -827, -847.848264, 110.075954
0.000000, 1179, 1150.015945, 18.051662, -710, -841.322994, 108.814298
-10.000000, 1152, 1151.365582, 18.057969, -883, -832.283450, 107.969667
-10.000000, 1172, 1148.162566, 18.047589, -892, -849.654061, 110.699508
0.000000, 1127, 1143.974712, 18.036262, -758, -860.893647, 113.753876
0.000000, 1141, 1145.544816, 18.042070, -889, -850.765476, 112.000143
-10.000000, 1177, 1146.653642, 18.044803, -805, -843.932582, 110.160854
0.000000, 1155, 1142.713210, 18.032885, -774, -858.185839, 114.123919
0.000000, 1144, 1145.237250, 18.037840, -741, -847.504269, 111.790941
0.000000, 1134, 1147.238246, 18.039802, -849, -835.109767, 109.891663
-10.000000, 1106, 1148.440395, 18.040535, -753, -825.509498, 107.970404
-10.000000, 1151, 1149.029073, 18.020010, -1011, -850.241446, 112.431450
-30.000000, 1128, 1149.379006, 18.007121, -724, -859.924072, 115.196291
-10.000000, 1158, 1156.155391, 17.954572, -973, -929.898033, 124.065318
0.000000, 1166, 1156.856247, 17.950528, -1047, -936.361807, 125.647447
0.000000, 1172, 1156.111828, 17.955530, -1014, -931.365839, 122.211330
0.000000, 1160, 1156.525022, 17.958778, -996, -932.604202, 118.879068
0.000000, 1161, 1157.059735, 17.958201, -1049, -937.256464, 115.571908
0.000000, 1159, 1157.696981, 17.954877, -853, -946.813759, 112.909756
0.000000, 1133, 1158.273904, 17.949502, -892, -950.181081, 110.594685
-30.000000, 1167, 1157.680651, 17.947533, -960, -950.467177, 108.351363
-20.000000, 1143, 1158.573432, 17.969692, -701, -946.358263, 125.359328
-10.000000, 1175, 1161.108323, 17.982010, -989, -977.811476, 126.310108
-30.000000, 1155, 1161.172908, 17.984363, -953, -982.224791, 126.901049
-20.000000, 1187, 1163.103075, 18.016496, -1155, -1027.683525, 136.763824
-10.000000, 1155, 1161.531982, 18.025043, -1146, -1033.426262, 141.278747
-10.000000, 1152, 1161.623823, 18.023535, -1053, -1034.125100, 140.669234
-30.000000, 1175, 1161.597191, 18.021875, -1021, -1034.889295, 139.891815
-10.000000, 1157, 1159.478355, 18.054014, -1345, -1025.051107, 158.908991
-20.000000, 1171, 1159.692957, 18.048039, -861, -1035.494994, 159.676908
0.000000, 1120, 1158.348512, 18.064727, -819, -1023.950384, 157.299828
0.000000, 1164, 1155.410800, 18.065340, -1351, -1015.273208, 164.891950
0.000000, 1121, 1154.060056, 18.060371, -984, -1048.457569, 189.788350
0.000000, 1107, 1149.402055, 18.071279, -955, -1068.388330, 205.502962
0.000000, 1162, 1141.515200, 18.105948, -444, -1073.531238, 213.022401
0.000000, 1137, 1136.915551, 18.135532, -837, -1022.727223, 297.952532
0.000000, 1113, 1133.196472, 18.154838, -511, -966.980279, 374.675865
0.000000, 1143, 1128.755561, 18.171497, -1195, -889.574660, 473.154111
-50.000000, 1124, 1126.065156, 18.183528, 92, -846.318032, 526.007330
-30.000000, 1106, 1143.819558, 18.134534, -1517, -1532.478648, 18.720049
-10.000000, 1141, 1158.486809, 18.075256, -1810, -1812.356714, 4.875099
0.000000, 1185, 1156.688634, 18.080921, -1778, -1785.136100, 5.555294
0.000000, 1150, 1151.047874, 18.119611, -1662, -1647.782088, 10.694704
0.000000, 1119, 1146.366382, 18.144635, -1541, -1538.051457, 18.181248
0.000000, 1131, 1139.930672, 18.172297, -1443, -1449.454487, 27.935544
0.000000, 1152, 1133.941281, 18.190772, -1335, -1377.129764, 39.533957
-10.000000, 1130, 1130.502956, 18.205683, -1329, -1315.250117, 52.384279
0.000000, 1169, 1131.687450, 18.202392, -1342, -1335.893108, 47.637596
0.000000, 1162, 1131.780493, 18.223923, -1332, -1290.244605, 58.796837
0.000000, 1117, 1133.851667, 18.248383, -1285, -1256.026998, 69.646583
0.000000, 1128, 1134.527665, 18.267688, -1217, -1230.032872, 79.695993
0.000000, 1112, 1134.726024, 18.280493, -1136, -1208.280432, 88.596189
0.000000, 1077, 1133.792531, 18.292477, -1113, -1187.180952, 96.407059
0.000000, 1117, 1130.575509, 18.325130, -1259, -1166.876018, 103.066445
-10.000000, 1142, 1127.440302, 18.350537, -1148, -1154.021686, 108.705723
-10.000000, 1153, 1131.191273, 18.313978, -1219, -1173.665750, 101.139579
-30.000000, 1135, 1132.955680, 18.282922, -1114, -1186.929400, 95.855356
-30.000000, 1132, 1139.305683, 18.177710, -1122, -1256.965822, 78.554025
0.000000, 1130, 1146.109865, 18.104332, -1321, -1344.374852, 65.051100
0.000000, 1146, 1142.002157, 18.130838, -1314, -1309.122399, 69.610304
-30.000000, 1143, 1139.018232, 18.147462, -1234, -1280.986783, 73.232609
0.000000, 1117, 1145.096107, 18.121331, -1355, -1357.121505, 65.514090
0.000000, 1143, 1139.853547, 18.140164, -1282, -1326.278911, 68.224681
0.000000, 1141, 1135.889008, 18.150241, -1262, -1297.328852, 70.332276
-20.000000, 1156, 1133.089899, 18.153967, -1214, -1271.030267, 71.872376
-20.000000, 1096, 1134.151143, 18.144153, -1267, -1315.695001, 69.862325
0.000000, 1110, 1139.385880, 18.112797, -1301, -1357.457722, 68.472240
-20.000000, 1105, 1132.565340, 18.146012, -1354, -1320.270249, 69.424662
-30.000000, 1135, 1142.836810, 18.102347, -1378, -1355.498749, 68.710248
0.000000, 1168, 1160.925407, 18.042069, -1462, -1407.583029, 68.154041
0.000000, 1159, 1152.190236, 18.068046, -1374, -1386.467504, 68.311364
0.000000, 1156, 1145.841372, 18.083709, -1420, -1368.033604, 68.110428
0.000000, 1149, 1141.674355, 18.092517, -1239, -1358.092632, 67.821728
-10.000000, 1099, 1138.932224, 18.095375, -1270, -1339.747310, 68.150927
-10.000000, 1141, 1140.453531, 18.089621, -1408, -1345.540071, 68.071310
-10.000000, 1133, 1141.674865, 18.086144, -1360, -1348.983510, 68.016847
-20.000000, 1139, 1142.820230, 18.084148, -1316, -1351.574478, 68.027883
0.000000, 1118, 1149.920986, 18.079112, -1373, -1370.766725, 68.358595
0.000000, 1156, 1141.626446, 18.094781, -1449, -1356.794080, 67.811266
0.000000, 1116, 1136.142317, 18.105603, -1494, -1353.395183, 67.597385
0.000000, 1140, 1130.143273, 18.115465, -1309, -1361.510116, 68.221485
0.000000, 1110, 1125.969735, 18.120545, -1350, -1364.430323, 68.640592
0.000000, 1136, 1121.589322, 18.123828, -1325, -1365.892224, 68.787737
0.000000, 1102, 1118.853200, 18.125255, -1315, -1364.772168, 68.788462
0.000000, 1111, 1115.782261, 18.126001, -1292, -1361.340817, 68.710442
0.000000, 1099, 1113.076530, 18.124077, -1318, -1355.396576, 68.650038
0.000000, 1114, 1110.306656, 18.121548, -1208, -1349.045576, 68.507816
0.000000, 1119, 1108.199601, 18.117392, -1269, -1338.686821, 68.778256
-20.000000, 1102, 1106.852247, 18.112750, -1257, -1327.977545, 69.000983
-10.000000, 1098, 1113.874953, 18.143502, -1471, -1389.308139, 67.950439
-30.000000, 1130, 1116.688780, 18.152888, -1509, -1402.193496, 67.584613
-10.000000, 1122, 1125.217783, 18.199260, -1449, -1429.891194, 64.958288
0.000000, 1097, 1126.003385, 18.204477, -1528, -1431.763468, 64.801153
0.000000, 1113, 1121.260801, 18.195625, -1510, -1433.578219, 65.553532
0.000000, 1116, 1116.829531, 18.185045, -1396, -1440.504269, 66.242292
